{
	"info": {
		"_postman_id": "c09e17b1-13f4-444c-b394-5510caf3a4b6",
		"name": "ecommerce",
		"schema": "https://schema.getpostman.com/json/collection/v2.1.0/collection.json",
		"_exporter_id": "23096987"
	},
	"item": [
		{
			"name": "User Requests",
			"item": [
				{
					"name": "Register User (All)",
					"request": {
						"method": "POST",
						"header": [],
						"body": {
							"mode": "raw",
							"raw": "{\r\n    \"firstName\": \"Customer\",\r\n    \"lastName\": \"User\",\r\n    \"email\": \"customer@mail.com\",\r\n    \"password\": \"customer123\",\r\n    \"mobileNo\": \"09123456789\"\r\n}",
							"options": {
								"raw": {
									"language": "json"
								}
							}
						},
						"url": {
							"raw": "localhost:4000/users/register",
							"host": [
								"localhost"
							],
							"port": "4000",
							"path": [
								"users",
								"register"
							]
						}
					},
					"response": []
				},
				{
					"name": "Login (All)",
					"protocolProfileBehavior": {
						"disableBodyPruning": true
					},
					"request": {
						"method": "GET",
						"header": [],
						"body": {
							"mode": "raw",
							"raw": "{\r\n    \"email\": \"customer@mail.com\",\r\n    \"password\": \"customer123\"\r\n}",
							"options": {
								"raw": {
									"language": "json"
								}
							}
						},
						"url": {
							"raw": "localhost:4000/users/login",
							"host": [
								"localhost"
							],
							"port": "4000",
							"path": [
								"users",
								"login"
							]
						}
					},
					"response": []
				},
				{
					"name": "View User Details (Users)",
					"request": {
						"auth": {
							"type": "bearer",
							"bearer": [
								{
									"key": "token",
									"value": "eyJhbGciOiJIUzI1NiIsInR5cCI6IkpXVCJ9.eyJpZCI6IjYzMTkzOTJmMWM2YWUwY2Y4OTc4NTI0YiIsImVtYWlsIjoia2VubmV0aGFuZ0BtYWlsLmNvbSIsImlzQWRtaW4iOmZhbHNlLCJpYXQiOjE2NjI2MzI2Njl9.RQb1mG0eQXic1XiTuXUzeOYZPJPWGFwS5AYwAvj_hvI",
									"type": "string"
								}
							]
						},
						"method": "GET",
						"header": [],
						"url": {
							"raw": "localhost:4000/users/viewDetails",
							"host": [
								"localhost"
							],
							"port": "4000",
							"path": [
								"users",
								"viewDetails"
							]
						}
					},
					"response": []
				},
				{
					"name": "Set/Unset Admin (Admin)",
					"request": {
						"auth": {
							"type": "bearer",
							"bearer": [
								{
									"key": "token",
									"value": "eyJhbGciOiJIUzI1NiIsInR5cCI6IkpXVCJ9.eyJpZCI6IjYzMTdmNTdjNzJkZTdkMDQ0ZTQ0YmUzOSIsImVtYWlsIjoiYWRtaW5AbWFpbC5jb20iLCJpc0FkbWluIjp0cnVlLCJpYXQiOjE2NjI2MzI2OTV9.0GfWsWi6mSG8L3vVoxBJr6pGImJ3xTJsBdoSwV9ecuQ",
									"type": "string"
								}
							]
						},
						"method": "PATCH",
						"header": [],
						"body": {
							"mode": "raw",
							"raw": "{\r\n    \"isAdmin\": true\r\n}",
							"options": {
								"raw": {
									"language": "json"
								}
							}
						},
						"url": {
							"raw": "localhost:4000/users/setAdmin/6319392f1c6ae0cf8978524b",
							"host": [
								"localhost"
							],
							"port": "4000",
							"path": [
								"users",
								"setAdmin",
								"6319392f1c6ae0cf8978524b"
							]
						}
					},
					"response": []
				}
			]
		},
		{
			"name": "Product Requests",
			"item": [
				{
					"name": "Register Item (Admin)",
					"request": {
						"auth": {
							"type": "bearer",
							"bearer": [
								{
									"key": "token",
									"value": "eyJhbGciOiJIUzI1NiIsInR5cCI6IkpXVCJ9.eyJpZCI6IjYzMTdmNTdjNzJkZTdkMDQ0ZTQ0YmUzOSIsImVtYWlsIjoiYWRtaW5AbWFpbC5jb20iLCJpc0FkbWluIjp0cnVlLCJpYXQiOjE2NjI2MzI2OTV9.0GfWsWi6mSG8L3vVoxBJr6pGImJ3xTJsBdoSwV9ecuQ",
									"type": "string"
								}
							]
						},
						"method": "POST",
						"header": [],
						"body": {
							"mode": "raw",
							"raw": "{\r\n    \"name\": \"Raspberry Pi\",\r\n    \"description\": \"The fast and versatile microcontroller board.\",\r\n    \"price\": 1500,\r\n    \"stocks\": 100\r\n}",
							"options": {
								"raw": {
									"language": "json"
								}
							}
						},
						"url": {
							"raw": "localhost:4000/products/add",
							"host": [
								"localhost"
							],
							"port": "4000",
							"path": [
								"products",
								"add"
							]
						}
					},
					"response": []
				},
				{
					"name": "View Active Products (All)",
					"request": {
						"method": "GET",
						"header": [],
						"url": {
							"raw": "localhost:4000/products/active",
							"host": [
								"localhost"
							],
							"port": "4000",
							"path": [
								"products",
								"active"
							]
						}
					},
					"response": []
				},
				{
					"name": "View All Products (All)",
					"request": {
						"method": "GET",
						"header": [],
						"url": {
							"raw": "localhost:4000/products/all",
							"host": [
								"localhost"
							],
							"port": "4000",
							"path": [
								"products",
								"all"
							]
						}
					},
					"response": []
				},
				{
					"name": "View Single Product (All)",
					"request": {
						"method": "GET",
						"header": [],
						"url": {
							"raw": "localhost:4000/products/631966b2d5912cca99af43ae",
							"host": [
								"localhost"
							],
							"port": "4000",
							"path": [
								"products",
								"631966b2d5912cca99af43ae"
							]
						}
					},
					"response": []
				},
				{
					"name": "Update Product (Admin)",
					"request": {
						"auth": {
							"type": "bearer",
							"bearer": [
								{
									"key": "token",
									"value": "eyJhbGciOiJIUzI1NiIsInR5cCI6IkpXVCJ9.eyJpZCI6IjYzMTdmNTdjNzJkZTdkMDQ0ZTQ0YmUzOSIsImVtYWlsIjoiYWRtaW5AbWFpbC5jb20iLCJpc0FkbWluIjp0cnVlLCJpYXQiOjE2NjI2MzI2OTV9.0GfWsWi6mSG8L3vVoxBJr6pGImJ3xTJsBdoSwV9ecuQ",
									"type": "string"
								}
							]
						},
						"method": "PUT",
						"header": [],
						"body": {
							"mode": "raw",
							"raw": "{\r\n    \"name\": \"Arduino Uno\",\r\n    \"description\": \"An open-source microcontroller board based on the Microchip ATmega328P microcontroller.\",\r\n    \"price\":  100,\r\n    \"stocks\": 10\r\n}",
							"options": {
								"raw": {
									"language": "json"
								}
							}
						},
						"url": {
							"raw": "localhost:4000/products/edit/631966b2d5912cca99af43ae",
							"host": [
								"localhost"
							],
							"port": "4000",
							"path": [
								"products",
								"edit",
								"631966b2d5912cca99af43ae"
							]
						}
					},
					"response": []
				},
				{
					"name": "Archive/Unarchive Product (Admin)",
					"request": {
						"auth": {
							"type": "bearer",
							"bearer": [
								{
									"key": "token",
									"value": "eyJhbGciOiJIUzI1NiIsInR5cCI6IkpXVCJ9.eyJpZCI6IjYzMTdmNTdjNzJkZTdkMDQ0ZTQ0YmUzOSIsImVtYWlsIjoiYWRtaW5AbWFpbC5jb20iLCJpc0FkbWluIjp0cnVlLCJpYXQiOjE2NjI2MzI2OTV9.0GfWsWi6mSG8L3vVoxBJr6pGImJ3xTJsBdoSwV9ecuQ",
									"type": "string"
								}
							]
						},
						"method": "PATCH",
						"header": [],
						"body": {
							"mode": "raw",
							"raw": "{\r\n    \"isActive\": true\r\n}",
							"options": {
								"raw": {
									"language": "json"
								}
							}
						},
						"url": {
							"raw": "localhost:4000/products/archive/631966b2d5912cca99af43ae",
							"host": [
								"localhost"
							],
							"port": "4000",
							"path": [
								"products",
								"archive",
								"631966b2d5912cca99af43ae"
							]
						}
					},
					"response": []
				}
			]
		},
		{
			"name": "Order Requests",
			"item": [
				{
					"name": "Order Product (Customers)",
					"request": {
						"auth": {
							"type": "bearer",
							"bearer": [
								{
									"key": "token",
									"value": "eyJhbGciOiJIUzI1NiIsInR5cCI6IkpXVCJ9.eyJpZCI6IjYzMTkzOTJmMWM2YWUwY2Y4OTc4NTI0YiIsImVtYWlsIjoia2VubmV0aGFuZ0BtYWlsLmNvbSIsImlzQWRtaW4iOmZhbHNlLCJpYXQiOjE2NjI2MzI2Njl9.RQb1mG0eQXic1XiTuXUzeOYZPJPWGFwS5AYwAvj_hvI",
									"type": "string"
								}
							]
						},
						"method": "POST",
						"header": [],
						"body": {
							"mode": "raw",
							"raw": "{\r\n    \"products\" : [\r\n        {\r\n            \"productId\" : \"631966b2d5912cca99af43ae\",\r\n            \"productName\": \"Arduino Uno\",\r\n            \"quantity\" : 10\r\n        },\r\n        {\r\n            \"productId\" : \"63196aea6464d2830f3b3c01\",\r\n            \"productName\": \"ESP8266\",\r\n            \"quantity\" : 10\r\n        }\r\n    ],\r\n    \"totalAmount\" : 2000\r\n}",
							"options": {
								"raw": {
									"language": "json"
								}
							}
						},
						"url": {
							"raw": "localhost:4000/orders/",
							"host": [
								"localhost"
							],
							"port": "4000",
							"path": [
								"orders",
								""
							]
						}
					},
					"response": []
				},
				{
					"name": "View User's orders (Customers)",
					"request": {
						"auth": {
							"type": "bearer",
							"bearer": [
								{
									"key": "token",
									"value": "eyJhbGciOiJIUzI1NiIsInR5cCI6IkpXVCJ9.eyJpZCI6IjYzMTkzOTJmMWM2YWUwY2Y4OTc4NTI0YiIsImVtYWlsIjoia2VubmV0aGFuZ0BtYWlsLmNvbSIsImlzQWRtaW4iOmZhbHNlLCJpYXQiOjE2NjI2MzI2Njl9.RQb1mG0eQXic1XiTuXUzeOYZPJPWGFwS5AYwAvj_hvI",
									"type": "string"
								}
							]
						},
						"method": "GET",
						"header": [],
						"url": {
							"raw": "localhost:4000/orders/myOrders",
							"host": [
								"localhost"
							],
							"port": "4000",
							"path": [
								"orders",
								"myOrders"
							]
						}
					},
					"response": []
				},
				{
					"name": "View All Orders (Admin)",
					"request": {
						"auth": {
							"type": "bearer",
							"bearer": [
								{
									"key": "token",
									"value": "eyJhbGciOiJIUzI1NiIsInR5cCI6IkpXVCJ9.eyJpZCI6IjYzMTdmNTdjNzJkZTdkMDQ0ZTQ0YmUzOSIsImVtYWlsIjoiYWRtaW5AbWFpbC5jb20iLCJpc0FkbWluIjp0cnVlLCJpYXQiOjE2NjI2MzI2OTV9.0GfWsWi6mSG8L3vVoxBJr6pGImJ3xTJsBdoSwV9ecuQ",
									"type": "string"
								}
							]
						},
						"method": "GET",
						"header": [],
						"url": {
							"raw": "localhost:4000/orders/allOrders",
							"host": [
								"localhost"
							],
							"port": "4000",
							"path": [
								"orders",
								"allOrders"
							]
						}
					},
					"response": []
				}
			]
		}
	]
}